%YAML 1.1
%TAG !u! tag:unity3d.com,2011:
--- !u!114 &11400000
MonoBehaviour:
  m_ObjectHideFlags: 0
  m_CorrespondingSourceObject: {fileID: 0}
  m_PrefabInternal: {fileID: 0}
  m_GameObject: {fileID: 0}
  m_Enabled: 1
  m_EditorHideFlags: 0
  m_Script: {fileID: 11500000, guid: f0188188c253e0c4bb9b46e19fa7312e, type: 3}
  m_Name: CV_Belt_C_Part_B_WITH_OVERLAYER_Recipe
  m_EditorClassIdentifier: 
  recipeType: Wardrobe
  DisplayValue: CV_Belt_C_Part_B_WITH_OVERLAYER
  compatibleRaces: []
  wardrobeRecipeThumbs: []
  wardrobeSlot: None
  Hides: []
  suppressWardrobeSlots: []
  activeWardrobeSet: []
  MeshHideAssets: []
  recipeString: 
  replaces: 
