%YAML 1.1
%TAG !u! tag:unity3d.com,2011:
--- !u!114 &11400000
MonoBehaviour:
  m_ObjectHideFlags: 0
  m_CorrespondingSourceObject: {fileID: 0}
  m_PrefabInstance: {fileID: 0}
  m_PrefabAsset: {fileID: 0}
  m_GameObject: {fileID: 0}
  m_Enabled: 1
  m_EditorHideFlags: 0
  m_Script: {fileID: 11500000, guid: f0188188c253e0c4bb9b46e19fa7312e, type: 3}
  m_Name: CV_TabardOverlayer_A_(FEMALE VERSION)_Recipe
  m_EditorClassIdentifier: 
  recipeType: Wardrobe
  DisplayValue: CV_TabardOverlayer_A_(FEMALE VERSION)_Slot
  compatibleRaces: []
  wardrobeRecipeThumbs: []
  wardrobeSlot: None
  Hides: []
  suppressWardrobeSlots: []
  activeWardrobeSet: []
  MeshHideAssets: []
  recipeString: '{"version":3,"packedSlotDataList":[],"slotsV2":[],"slotsV3":[{"id":"CV_TabardOverlayer_A_(FEMALE
    VERSION)","scale":100,"copyIdx":-1,"overlays":[]}],"colors":[],"fColors":[],"sharedColorCount":0,"race":"","packedDna":[]}'
  replaces: 
