%YAML 1.1
%TAG !u! tag:unity3d.com,2011:
--- !u!114 &11400000
MonoBehaviour:
  m_ObjectHideFlags: 0
  m_CorrespondingSourceObject: {fileID: 0}
  m_PrefabInternal: {fileID: 0}
  m_GameObject: {fileID: 0}
  m_Enabled: 1
  m_EditorHideFlags: 0
  m_Script: {fileID: 11500000, guid: f0188188c253e0c4bb9b46e19fa7312e, type: 3}
  m_Name: CV_ShoulderMantle_Recipe
  m_EditorClassIdentifier: 
  recipeType: Wardrobe
  DisplayValue: CV_ShoulderMantle
  compatibleRaces:
  - HP_MaleHead_A
  - HP_MaleHead_B
  - HP_MaleHead_C
  - HP_MaleHeadD
  - HP_MaleHead_E
  - HumanMale
  - HumanMaleDCS
  - HumanMaleHighPoly
  wardrobeRecipeThumbs:
  - race: HP_MaleHead_A
    filename: 
    thumb: {fileID: 0}
  - race: HP_MaleHead_B
    filename: 
    thumb: {fileID: 0}
  - race: HP_MaleHead_C
    filename: 
    thumb: {fileID: 0}
  - race: HP_MaleHeadD
    filename: 
    thumb: {fileID: 0}
  - race: HP_MaleHead_E
    filename: 
    thumb: {fileID: 0}
  - race: HumanMale
    filename: 
    thumb: {fileID: 0}
  - race: HumanMaleDCS
    filename: 
    thumb: {fileID: 0}
  - race: HumanMaleHighPoly
    filename: 
    thumb: {fileID: 0}
  wardrobeSlot: Cape
  Hides: []
  suppressWardrobeSlots: []
  activeWardrobeSet: []
  MeshHideAssets: []
  recipeString: '{"version":3,"packedSlotDataList":[],"slotsV2":[],"slotsV3":[{"id":"CV_ShoulderMantle","scale":100,"copyIdx":-1,"overlays":[{"id":"CV_ShoulderMantle_Overlay","colorIdx":0,"rect":[0,0,0,0]}]}],"colors":[],"fColors":[{"name":"","colors":[255,255,255,255,0,0,0,0,255,255,255,255,0,0,0,0,255,255,255,255,0,0,0,0]}],"sharedColorCount":0,"race":"","packedDna":[]}'
  replaces: Nothing
