%YAML 1.1
%TAG !u! tag:unity3d.com,2011:
--- !u!114 &11400000
MonoBehaviour:
  m_ObjectHideFlags: 0
  m_CorrespondingSourceObject: {fileID: 0}
  m_PrefabInternal: {fileID: 0}
  m_GameObject: {fileID: 0}
  m_Enabled: 1
  m_EditorHideFlags: 0
  m_Script: {fileID: 11500000, guid: f0188188c253e0c4bb9b46e19fa7312e, type: 3}
  m_Name: CV_Tabbard_B_Style_B_Recipe
  m_EditorClassIdentifier: 
  recipeType: Wardrobe
  DisplayValue: CV_Tabbard_B_Style_B
  compatibleRaces:
  - HumanMale
  - HumanMaleDCS
  - HumanMaleHighPoly
  - HP_MaleHead_A
  - HP_MaleHead_B
  - HP_MaleHead_C
  - HP_MaleHeadD
  - HP_MaleHead_E
  wardrobeRecipeThumbs:
  - race: HumanMale
    filename: 
    thumb: {fileID: 0}
  - race: HumanMaleDCS
    filename: 
    thumb: {fileID: 0}
  - race: HumanMaleHighPoly
    filename: 
    thumb: {fileID: 0}
  - race: HP_MaleHead_A
    filename: 
    thumb: {fileID: 0}
  - race: HP_MaleHead_B
    filename: 
    thumb: {fileID: 0}
  - race: HP_MaleHead_C
    filename: 
    thumb: {fileID: 0}
  - race: HP_MaleHeadD
    filename: 
    thumb: {fileID: 0}
  - race: HP_MaleHead_E
    filename: 
    thumb: {fileID: 0}
  wardrobeSlot: FullOutfit
  Hides: []
  suppressWardrobeSlots: []
  activeWardrobeSet: []
  MeshHideAssets:
  - {fileID: 11400000, guid: ccd86a9d475ea964aa025cf91ae7558a, type: 2}
  - {fileID: 11400000, guid: d0606cace622ae347af649ef961e2a14, type: 2}
  recipeString: '{"version":3,"packedSlotDataList":[],"slotsV2":[],"slotsV3":[{"id":"CV_Tabbard_B","scale":100,"copyIdx":-1,"overlays":[{"id":"CV_Tabbard_B_Style_B_Overlay","colorIdx":0,"rect":[0,0,0,0]}]}],"colors":[],"fColors":[{"name":"-","colors":[255,255,255,255,0,0,0,0,255,255,255,255,0,0,0,0,255,255,255,255,0,0,0,0,255,255,255,255,0,0,0,0]}],"sharedColorCount":0,"race":"","packedDna":[]}'
  replaces: Nothing
