%YAML 1.1
%TAG !u! tag:unity3d.com,2011:
--- !u!114 &11400000
MonoBehaviour:
  m_ObjectHideFlags: 0
  m_CorrespondingSourceObject: {fileID: 0}
  m_PrefabInternal: {fileID: 0}
  m_GameObject: {fileID: 0}
  m_Enabled: 1
  m_EditorHideFlags: 0
  m_Script: {fileID: 11500000, guid: f0188188c253e0c4bb9b46e19fa7312e, type: 3}
  m_Name: CV_Tabbard_OVERLAYER_B_(TextureSwap_A)_Recipe
  m_EditorClassIdentifier: 
  recipeType: Wardrobe
  DisplayValue: CV_Tabbard_OVERLAYER_B_(TextureSwap_A)_Recipe
  compatibleRaces:
  - HP_MaleHead_A
  - HP_MaleHead_B
  - HP_MaleHead_C
  - HP_MaleHeadD
  - HP_MaleHead_E
  - HumanMale
  - HumanMaleDCS
  - HumanMaleHighPoly
  wardrobeRecipeThumbs:
  - race: HP_MaleHead_A
    filename: 
    thumb: {fileID: 0}
  - race: HP_MaleHead_B
    filename: 
    thumb: {fileID: 0}
  - race: HP_MaleHead_C
    filename: 
    thumb: {fileID: 0}
  - race: HP_MaleHeadD
    filename: 
    thumb: {fileID: 0}
  - race: HP_MaleHead_E
    filename: 
    thumb: {fileID: 0}
  - race: HumanMale
    filename: 
    thumb: {fileID: 0}
  - race: HumanMaleDCS
    filename: 
    thumb: {fileID: 0}
  - race: HumanMaleHighPoly
    filename: 
    thumb: {fileID: 0}
  wardrobeSlot: Chest
  Hides: []
  suppressWardrobeSlots: []
  activeWardrobeSet: []
  MeshHideAssets:
  - {fileID: 11400000, guid: 03b7fd9c79a291a4fbcf3502db682f3e, type: 2}
  - {fileID: 11400000, guid: 316d192552062c64da8138ed903b78a9, type: 2}
  recipeString: '{"version":3,"packedSlotDataList":[],"slotsV2":[],"slotsV3":[{"id":"","scale":1,"copyIdx":-1,"overlays":[]},{"id":"CL_Tabbard_OVERLAYER_B_(WITHOUT_PADS)","scale":100,"copyIdx":-1,"overlays":[{"id":"CV_Tabbard_OVERLAYER_B_TextureSwap(A)_OVERLAY","colorIdx":0,"rect":[0,0,0,0]}]}],"colors":[],"fColors":[{"name":"","colors":[255,255,255,255,0,0,0,0,255,255,255,255,0,0,0,0,255,255,255,255,0,0,0,0,255,255,255,255,0,0,0,0]}],"sharedColorCount":0,"race":"","packedDna":[]}'
  replaces: Nothing
